20

9
7
-1
1
-1
3
5
9
-1
5
-1
6
10
5
4
-1
2
-1
10
2
2
-1

9
-1
3
8
1
2
-1
6
8
6

9
3
9
8
8
4
-1
10
-1
2
7
9
-1
8
2
10
-1
9
-1
3

9
-1
5
9
5

6
-1
6
1
-1
7
5
-1
2
-1
5
8
5
9
1
6

3
3
-1
5
8
1
3
8
-1
4
1
6
6
10
10

7
1
3
4
-1

4
1
6
8
8
2
3

5
-1
3
2
1
7
10
7

9
3
6
8
5
2
-1
2
3
1
4
2
4
2
10
5
-1
9
-1
1
-1
9
8
-1
1

7
-1
5
9
-1

7
-1
4
-1
5
6
-1
9
8
-1
8
10
10
-1
10
1
-1
10
6
-1
2
7
-1
10
-1
5
-1
3
-1

5
7

10
-1
6
5
2
4
2
2
9
3
9
9

3
3
-1
10
7
4
-1
7
2
-1
8
-1
1
-1
8
-1
10
-1
5
7
-1
7
2
-1
9
9
5
9

2
9
2
-1

2

5
8
-1
7
5
-1
9
5
6
3
4
5

5
3
2
-1
3
-1
10
10
-1
10
2
-1
7
-1
6
4
-1
4
-1
10
-1

9
1
9
-1
5
-1
3
-1
9
-1
10
1
4
