-40 944
24 -96 -256 -400 184
-816 168
-56 32 -64 -8 -88 -24 -24 -296 -40 288
-32 952
48 -32 -64 824
992
992
-72 -48 856
88 -8 64 -40 760
112 -48 48 -56 696
-32 72 -96 -64 696
-8 8 -72 -24 -16 824
992
184 -72 -72 -56 576
-40 -32 904
-32 -40 904
64 -32 880
-64 -48 8 -8 -24 800
-48 -48 -8 -24 832
72 -40 864
