120 -16 -24 808
-8 -24 -32 -48 56 -64 -80 -16 600
-224 88 -96 560
992
-72 504 -16 376
-56 -32 8 -24 -40 288 -16 472
248 -240 488
-80 -160 -80 648
-24 -32 -8 -40 -64 -8 -32 -72 -96 544
-80 -800 -16 72
992
-64 920
992
-48 -104 -416 400
432 -56 -360 120
-40 -96 840
-8 -24 -80 -24 -32 -40 -48 -56 -64 -72 -80 376
-40 -24 -256 -96 544
992
992
992
-40 -32 -216 680
-72 912
-40 -24 -64 840
992
