992
-8 -24 -120 -104 -48 -112 528
-8 976
-88 24 -8 -104 -48 680
-24 -56 -40 -64 -96 672
104 -104 -112 648
48 -72 -120 728
-88 -104 -88 -16 -120 -56 472
-24 56 -104 -56 -48 664
-32 -120 824
992
992
-120 -112 -48 -72 608
32 -48 -80 808
-88 -72 -80 -88 -40 584
96 -8 -72 24 -72 -64 -120 480
-16 -56 904
-64 -16 896
992
8 -80 -48 832
