30

11
14
22
-1
-1
-1
22
78
-2
-1
98

121
-1

96
-1
105
-1
109
-1
98
-1
88
-1
22
-1
12
23
12
52
7

49
19
20
-1
24
-2

64
10
32
-1
42
2
-3

24
30
21
15
-1
22
-3

19

18
38
49

43
40

7
24
-1
32
24

28
90
-1
-1

2
31
1
1
1
1
1
-3
-1
-2

83

3
96
-2

36
42

45
-1

7
-1
4
4
4
4
4
4
4
-2
-4

47
9
-1

8
22
2
33
24
11
-3
-1
-2

10
-1

34

118

88
24
-1

107

14
14
14
14
-2
-2
-2
-1

113

105
-1
30
80

53
20
22
10
-3
19

13
70
-1
2
1
1
1
1
1
1
-2
24
-1

40
22
11
-1
2
-1
2
-1
2
3
1
33
11
13
3
5
2
-2
2
-2
-3
-4
-1
