-64 -8 904
24 -16 -32 -56 -72 -8 -24 -40 -32 16 -8 -24 544
-240 -24 -16 -40 -32 -72 -72 -80 352
-176 -160 -8 -80 536
-16 -24 -72 24 -208 608
440 -80 -16 -96 328
-240 -16 -24 688
992
-80 -16 -80 -64 720
-16 968
992
-8 -64 -80 -80 -48 672
-80 904
-56 -32 8 -24 -40 288 -16 472
248 -240 488
-80 -160 -80 648
-24 -32 -8 -40 -64 -8 -32 -72 -96 544
-80 -800 -16 72
992
-64 920
992
-32 528 -80 328
192 -104 -120 -488 56
320 -120 40 -104 -112 256
-184 -96 168 -32 -16 -8 440
